{
   "page": 1,
   "per_page": 6,
   "total": 12,
   "total_pages": 2,
   "data": [
      {
         "id": 1,
         "name": "components.index",
         "path": "/components",
         "component": "layouts/MainLayout",
         "redirect": "/components/list",
         "meta": {
            "title": "组件",
            "icon": "Operation",
            "permissions": [
               "admin",
               "editor"
            ]
         },
         "children": [
            {
               "id": 11,
               "name": "components.list",
               "path": "/components/list",
               "component": "components/ListView",
               "meta": {
                  "title": "列表",
                  "icon": "List",
                  "permissions": [
                     "admin",
                     "editor"
                  ]
               }
            },
            {
               "id": 12,
               "name": "components.form",
               "path": "/components/form",
               "component": "components/FormView",
               "meta": {
                  "title": "表单",
                  "icon": "DocumentCopy",
                  "permissions": [
                     "admin"
                  ]
               }
            },
            {
               "id": 13,
               "name": "components.charts",
               "path": "/components/charts",
               "component": "components/ChartsView",
               "meta": {
                  "title": "表单",
                  "icon": "DocumentCopy",
                  "permissions": [
                     "admin"
                  ]
               }
            },
            {
               "id": 14,
               "name": "components.icons",
               "path": "/components/icons",
               "component": "components/IconsView",
               "meta": {
                  "title": "表单",
                  "icon": "DocumentCopy",
                  "permissions": [
                     "admin"
                  ]
               }
            }
         ]
      },
      {
         "id": 2,
         "name": "setting.index",
         "path": "/setting",
         "component": "layouts/MainLayout",
         "redirect": "setting/info",
         "meta": {
            "title": "设置",
            "icon": "Setting",
            "permissions": [
               "admin"
            ]
         },
         "children": [
            {
               "id": 21,
               "name": "setting.info",
               "path": "/setting/info",
               "component": "setting/InfoView",
               "meta": {
                  "title": "个人中心",
                  "icon": "User",
                  "permissions": [
                     "admin"
                  ]
               }
            },
            {
               "id": 22,
               "name": "setting.role",
               "path": "/setting/role",
               "component": "setting/RoleView",
               "meta": {
                  "title": "角色管理",
                  "icon": "Monitor",
                  "permissions": [
                     "admin"
                  ]
               }
            },
            {
               "id": 23,
               "name": "setting.menu",
               "path": "/setting/menu",
               "component": "setting/MenuView",
               "meta": {
                  "title": "菜单管理",
                  "icon": "Menu",
                  "permissions": [
                     "admin"
                  ]
               }
            },
            {
               "id": 24,
               "name": "setting.users",
               "path": "/setting/users",
               "component": "setting/UsersView",
               "meta": {
                  "title": "菜单管理",
                  "icon": "Avatar",
                  "permissions": [
                     "admin"
                  ]
               }
            }
         ]
      }
   ]
}
