{
   "page": 1,
   "per_page": 6,
   "total": 12,
   "total_pages": 2,
   "data": [{"id":1,"type":"admin"},{"id":2,"type":"editor"},{"id":3,"type":"vistor"}]
}
